1 1  0.000000000000000e+00
2 2  0.000000000000000e+00
3 3  0.000000000000000e+00
4 4  0.000000000000000e+00
5 5  0.000000000000000e+00
6 6  0.000000000000000e+00
7 7  0.000000000000000e+00
8 8  0.000000000000000e+00
9 9  0.000000000000000e+00
10 10  0.000000000000000e+00
11 11  0.000000000000000e+00
12 12  0.000000000000000e+00
13 13  0.000000000000000e+00
14 14  0.000000000000000e+00
15 15  0.000000000000000e+00
16 16  0.000000000000000e+00
17 17  0.000000000000000e+00
18 18  0.000000000000000e+00
19 19  0.000000000000000e+00
20 20  0.000000000000000e+00
21 21  0.000000000000000e+00
22 22  0.000000000000000e+00
23 23  0.000000000000000e+00
24 24  0.000000000000000e+00
25 25  0.000000000000000e+00
26 26  0.000000000000000e+00
27 27  0.000000000000000e+00
28 28  0.000000000000000e+00
29 29  0.000000000000000e+00
30 30  0.000000000000000e+00
31 31  0.000000000000000e+00
32 32  0.000000000000000e+00
33 33  0.000000000000000e+00
34 34  0.000000000000000e+00
35 35  0.000000000000000e+00
36 36  0.000000000000000e+00
37 37  0.000000000000000e+00
38 38  0.000000000000000e+00
39 39  0.000000000000000e+00
40 40  0.000000000000000e+00
41 41  0.000000000000000e+00
42 42  0.000000000000000e+00
43 43  0.000000000000000e+00
44 44  0.000000000000000e+00
45 45  0.000000000000000e+00
46 46  0.000000000000000e+00
47 47  0.000000000000000e+00
48 48  0.000000000000000e+00
49 49  0.000000000000000e+00
50 50  0.000000000000000e+00
51 51  0.000000000000000e+00
52 52  0.000000000000000e+00
53 53  0.000000000000000e+00
54 54  0.000000000000000e+00
55 55  0.000000000000000e+00
56 56  0.000000000000000e+00
57 57  0.000000000000000e+00
58 58  0.000000000000000e+00
59 59  0.000000000000000e+00
60 60  0.000000000000000e+00
61 61  0.000000000000000e+00
62 62  0.000000000000000e+00
63 63  0.000000000000000e+00
64 64  0.000000000000000e+00
65 65  0.000000000000000e+00
66 66  0.000000000000000e+00
67 67  0.000000000000000e+00
68 68  0.000000000000000e+00
69 69  0.000000000000000e+00
70 70  0.000000000000000e+00
71 71  0.000000000000000e+00
72 72  0.000000000000000e+00
73 73  0.000000000000000e+00
74 74  0.000000000000000e+00
75 75  0.000000000000000e+00
76 76  0.000000000000000e+00
77 77  0.000000000000000e+00
78 78  0.000000000000000e+00
79 79  0.000000000000000e+00
80 80  0.000000000000000e+00
81 81  0.000000000000000e+00
82 82  0.000000000000000e+00
83 83  0.000000000000000e+00
84 84  0.000000000000000e+00
85 85  0.000000000000000e+00
86 86  0.000000000000000e+00
87 87  0.000000000000000e+00
88 88  0.000000000000000e+00
89 89  0.000000000000000e+00
90 90  0.000000000000000e+00
91 91  0.000000000000000e+00
92 92  0.000000000000000e+00
93 93  0.000000000000000e+00
94 94  0.000000000000000e+00
95 95  0.000000000000000e+00
96 96  0.000000000000000e+00
97 97  0.000000000000000e+00
98 98  0.000000000000000e+00
99 99  0.000000000000000e+00
100 100  0.000000000000000e+00
101 101  0.000000000000000e+00
102 102  0.000000000000000e+00
103 103  0.000000000000000e+00
104 104  0.000000000000000e+00
105 105  0.000000000000000e+00
106 106  0.000000000000000e+00
107 107  0.000000000000000e+00
108 108  0.000000000000000e+00
109 109  0.000000000000000e+00
110 110  0.000000000000000e+00
111 111  0.000000000000000e+00
112 112  0.000000000000000e+00
113 113  0.000000000000000e+00
114 114  0.000000000000000e+00
115 115  0.000000000000000e+00
116 116  0.000000000000000e+00
117 117  0.000000000000000e+00
118 118  0.000000000000000e+00
119 119  0.000000000000000e+00
120 120  0.000000000000000e+00
121 121  0.000000000000000e+00
122 122  0.000000000000000e+00
123 123  0.000000000000000e+00
124 124  0.000000000000000e+00
125 125  0.000000000000000e+00
126 126  0.000000000000000e+00
127 127  0.000000000000000e+00
128 128  0.000000000000000e+00
129 129  0.000000000000000e+00
130 130  0.000000000000000e+00
131 131  0.000000000000000e+00
132 132  0.000000000000000e+00
133 133  0.000000000000000e+00
134 134  0.000000000000000e+00
135 135  0.000000000000000e+00
136 136  0.000000000000000e+00
137 137  0.000000000000000e+00
138 138  0.000000000000000e+00
139 139  0.000000000000000e+00
140 140  0.000000000000000e+00
141 141  0.000000000000000e+00
142 142  0.000000000000000e+00
143 143  0.000000000000000e+00
144 144  0.000000000000000e+00
145 145  0.000000000000000e+00
146 146  0.000000000000000e+00
147 147  0.000000000000000e+00
148 148  0.000000000000000e+00
149 149  0.000000000000000e+00
150 150  0.000000000000000e+00
151 151  0.000000000000000e+00
152 152  0.000000000000000e+00
153 153  0.000000000000000e+00
154 154  0.000000000000000e+00
155 155  0.000000000000000e+00
156 156  0.000000000000000e+00
157 157  0.000000000000000e+00
158 158  0.000000000000000e+00
159 159  0.000000000000000e+00
160 160  0.000000000000000e+00
161 161  0.000000000000000e+00
162 162  0.000000000000000e+00
163 163  0.000000000000000e+00
164 164  0.000000000000000e+00
165 165  0.000000000000000e+00
166 166  0.000000000000000e+00
167 167  0.000000000000000e+00
168 168  0.000000000000000e+00
169 169  0.000000000000000e+00
170 170  0.000000000000000e+00
171 171  0.000000000000000e+00
172 172  0.000000000000000e+00
173 173  0.000000000000000e+00
174 174  0.000000000000000e+00
175 175  0.000000000000000e+00
176 176  0.000000000000000e+00
177 177  0.000000000000000e+00
178 178  0.000000000000000e+00
179 179  0.000000000000000e+00
180 180  0.000000000000000e+00
181 181  0.000000000000000e+00
182 182  0.000000000000000e+00
183 183  0.000000000000000e+00
184 184  0.000000000000000e+00
185 185  0.000000000000000e+00
186 186  0.000000000000000e+00
187 187  0.000000000000000e+00
188 188  0.000000000000000e+00
189 189  0.000000000000000e+00
190 190  0.000000000000000e+00
191 191  0.000000000000000e+00
192 192  0.000000000000000e+00
193 193  0.000000000000000e+00
194 194  0.000000000000000e+00
195 195  0.000000000000000e+00
196 196  0.000000000000000e+00
197 197  0.000000000000000e+00
198 198  0.000000000000000e+00
199 199  0.000000000000000e+00
200 200  0.000000000000000e+00
201 201  0.000000000000000e+00
202 202  0.000000000000000e+00
203 203  0.000000000000000e+00
204 204  0.000000000000000e+00
205 205  0.000000000000000e+00
206 206  0.000000000000000e+00
207 207  0.000000000000000e+00
208 208  0.000000000000000e+00
209 209  0.000000000000000e+00
210 210  0.000000000000000e+00
211 211  0.000000000000000e+00
212 212  0.000000000000000e+00
213 213  0.000000000000000e+00
214 214  0.000000000000000e+00
215 215  0.000000000000000e+00
216 216  0.000000000000000e+00
217 217  0.000000000000000e+00
218 218  0.000000000000000e+00
219 219  0.000000000000000e+00
220 220  0.000000000000000e+00
221 221  0.000000000000000e+00
222 222  0.000000000000000e+00
223 223  0.000000000000000e+00
224 224  0.000000000000000e+00
225 225  0.000000000000000e+00
226 226  0.000000000000000e+00
227 227  0.000000000000000e+00
228 228  0.000000000000000e+00
229 229  0.000000000000000e+00
230 230  0.000000000000000e+00
231 231  0.000000000000000e+00
232 232  0.000000000000000e+00
233 233  0.000000000000000e+00
234 234  0.000000000000000e+00
235 235  0.000000000000000e+00
236 236  0.000000000000000e+00
237 237  0.000000000000000e+00
238 238  0.000000000000000e+00
239 239  0.000000000000000e+00
240 240  0.000000000000000e+00
241 241  0.000000000000000e+00
242 242  0.000000000000000e+00
243 243  0.000000000000000e+00
244 244  0.000000000000000e+00
245 245  0.000000000000000e+00
246 246  0.000000000000000e+00
247 247  0.000000000000000e+00
248 248  0.000000000000000e+00
249 249  0.000000000000000e+00
250 250  0.000000000000000e+00
251 251  0.000000000000000e+00
252 252  0.000000000000000e+00
253 253  0.000000000000000e+00
254 254  0.000000000000000e+00
255 255  0.000000000000000e+00
256 256  0.000000000000000e+00
257 257  0.000000000000000e+00
258 258  0.000000000000000e+00
259 259  0.000000000000000e+00
260 260  0.000000000000000e+00
261 261  0.000000000000000e+00
262 262  0.000000000000000e+00
263 263  0.000000000000000e+00
264 264  0.000000000000000e+00
265 265  0.000000000000000e+00
266 266  0.000000000000000e+00
267 267  0.000000000000000e+00
268 268  0.000000000000000e+00
269 269  0.000000000000000e+00
270 270  0.000000000000000e+00
271 271  0.000000000000000e+00
272 272  0.000000000000000e+00
273 273  0.000000000000000e+00
274 274  0.000000000000000e+00
275 275  0.000000000000000e+00
276 276  0.000000000000000e+00
277 277  0.000000000000000e+00
278 278  0.000000000000000e+00
279 279  0.000000000000000e+00
280 280  0.000000000000000e+00
281 281  0.000000000000000e+00
282 282  0.000000000000000e+00
283 283  0.000000000000000e+00
284 284  0.000000000000000e+00
285 285  0.000000000000000e+00
286 286  0.000000000000000e+00
287 287  0.000000000000000e+00
288 288  0.000000000000000e+00
289 289  0.000000000000000e+00
290 290  0.000000000000000e+00
291 291  0.000000000000000e+00
292 292  0.000000000000000e+00
293 293  0.000000000000000e+00
294 294  0.000000000000000e+00
295 295  0.000000000000000e+00
296 296  0.000000000000000e+00
297 297  0.000000000000000e+00
298 298  0.000000000000000e+00
299 299  0.000000000000000e+00
300 300  0.000000000000000e+00
301 301  0.000000000000000e+00
302 302  0.000000000000000e+00
303 303  0.000000000000000e+00
304 304  0.000000000000000e+00
305 305  0.000000000000000e+00
306 306  0.000000000000000e+00
307 307  0.000000000000000e+00
308 308  0.000000000000000e+00
309 309  0.000000000000000e+00
310 310  0.000000000000000e+00
311 311  0.000000000000000e+00
312 312  0.000000000000000e+00
313 313  0.000000000000000e+00
314 314  0.000000000000000e+00
315 315  0.000000000000000e+00
316 316  0.000000000000000e+00
317 317  0.000000000000000e+00
318 318  0.000000000000000e+00
319 319  0.000000000000000e+00
320 320  0.000000000000000e+00
321 321  0.000000000000000e+00
322 322  0.000000000000000e+00
323 323  0.000000000000000e+00
324 324  0.000000000000000e+00
325 325  0.000000000000000e+00
326 326  0.000000000000000e+00
327 327  0.000000000000000e+00
328 328  0.000000000000000e+00
329 329  0.000000000000000e+00
330 330  0.000000000000000e+00
331 331  0.000000000000000e+00
332 332  0.000000000000000e+00
333 333  0.000000000000000e+00
334 334  0.000000000000000e+00
335 335  0.000000000000000e+00
336 336  0.000000000000000e+00
337 337  0.000000000000000e+00
338 338  0.000000000000000e+00
339 339  0.000000000000000e+00
340 340  0.000000000000000e+00
341 341  0.000000000000000e+00
342 342  0.000000000000000e+00
343 343  0.000000000000000e+00
344 344  0.000000000000000e+00
345 345  0.000000000000000e+00
346 346  0.000000000000000e+00
347 347  0.000000000000000e+00
348 348  0.000000000000000e+00
349 349  0.000000000000000e+00
350 350  0.000000000000000e+00
351 351  0.000000000000000e+00
352 352  0.000000000000000e+00
353 353  0.000000000000000e+00
354 354  0.000000000000000e+00
355 355  0.000000000000000e+00
356 356  0.000000000000000e+00
357 357  0.000000000000000e+00
358 358  0.000000000000000e+00
359 359  0.000000000000000e+00
360 360  0.000000000000000e+00
361 361  0.000000000000000e+00
362 362  0.000000000000000e+00
363 363  0.000000000000000e+00
364 364  0.000000000000000e+00
365 365  0.000000000000000e+00
366 366  0.000000000000000e+00
367 367  0.000000000000000e+00
368 368  0.000000000000000e+00
369 369  0.000000000000000e+00
370 370  0.000000000000000e+00
371 371  0.000000000000000e+00
372 372  0.000000000000000e+00
373 373  0.000000000000000e+00
374 374  0.000000000000000e+00
375 375  0.000000000000000e+00
376 376  0.000000000000000e+00
377 377  0.000000000000000e+00
378 378  0.000000000000000e+00
379 379  0.000000000000000e+00
380 380  0.000000000000000e+00
381 381  0.000000000000000e+00
382 382  0.000000000000000e+00
383 383  0.000000000000000e+00
384 384  0.000000000000000e+00
385 385  0.000000000000000e+00
386 386  0.000000000000000e+00
387 387  0.000000000000000e+00
388 388  0.000000000000000e+00
389 389  0.000000000000000e+00
390 390  0.000000000000000e+00
391 391  0.000000000000000e+00
392 392  0.000000000000000e+00
393 393  0.000000000000000e+00
394 394  0.000000000000000e+00
395 395  0.000000000000000e+00
396 396  0.000000000000000e+00
397 397  0.000000000000000e+00
398 398  0.000000000000000e+00
399 399  0.000000000000000e+00
400 400  0.000000000000000e+00
401 401  0.000000000000000e+00
402 402  0.000000000000000e+00
403 403  0.000000000000000e+00
404 404  0.000000000000000e+00
405 405  0.000000000000000e+00
406 406  0.000000000000000e+00
407 407  0.000000000000000e+00
408 408  0.000000000000000e+00
409 409  0.000000000000000e+00
410 410  0.000000000000000e+00
411 411  0.000000000000000e+00
412 412  0.000000000000000e+00
413 413  0.000000000000000e+00
414 414  0.000000000000000e+00
415 415  0.000000000000000e+00
416 416  0.000000000000000e+00
417 417  0.000000000000000e+00
418 418  0.000000000000000e+00
419 419  0.000000000000000e+00
420 420  0.000000000000000e+00
421 421  0.000000000000000e+00
422 422  0.000000000000000e+00
423 423  0.000000000000000e+00
424 424  0.000000000000000e+00
425 425  0.000000000000000e+00
426 426  0.000000000000000e+00
427 427  0.000000000000000e+00
428 428  0.000000000000000e+00
429 429  0.000000000000000e+00
430 430  0.000000000000000e+00
431 431  0.000000000000000e+00
432 432  0.000000000000000e+00
433 433  0.000000000000000e+00
434 434  0.000000000000000e+00
435 435  0.000000000000000e+00
436 436  0.000000000000000e+00
437 437  0.000000000000000e+00
438 438  0.000000000000000e+00
439 439  0.000000000000000e+00
440 440  0.000000000000000e+00
441 441  0.000000000000000e+00
442 442  0.000000000000000e+00
443 443  0.000000000000000e+00
444 444  0.000000000000000e+00
445 445  0.000000000000000e+00
446 446  0.000000000000000e+00
447 447  0.000000000000000e+00
448 448  0.000000000000000e+00
449 449  0.000000000000000e+00
450 450  0.000000000000000e+00
451 451  0.000000000000000e+00
452 452  0.000000000000000e+00
453 453  0.000000000000000e+00
454 454  0.000000000000000e+00
455 455  0.000000000000000e+00
456 456  0.000000000000000e+00
457 457  0.000000000000000e+00
458 458  0.000000000000000e+00
459 459  0.000000000000000e+00
460 460  0.000000000000000e+00
461 461  0.000000000000000e+00
462 462  0.000000000000000e+00
463 463  0.000000000000000e+00
464 464  0.000000000000000e+00
465 465  0.000000000000000e+00
466 466  0.000000000000000e+00
467 467  0.000000000000000e+00
468 468  0.000000000000000e+00
469 469  0.000000000000000e+00
470 470  0.000000000000000e+00
471 471  0.000000000000000e+00
472 472  0.000000000000000e+00
473 473  0.000000000000000e+00
474 474  0.000000000000000e+00
475 475  0.000000000000000e+00
476 476  0.000000000000000e+00
477 477  0.000000000000000e+00
478 478  0.000000000000000e+00
479 479  0.000000000000000e+00
480 480  0.000000000000000e+00
481 481  0.000000000000000e+00
482 482  0.000000000000000e+00
483 483  0.000000000000000e+00
484 484  0.000000000000000e+00
485 485  0.000000000000000e+00
486 486  0.000000000000000e+00
487 487  0.000000000000000e+00
488 488  0.000000000000000e+00
489 489  0.000000000000000e+00
490 490  0.000000000000000e+00
491 491  0.000000000000000e+00
492 492  0.000000000000000e+00
493 493  0.000000000000000e+00
494 494  0.000000000000000e+00
495 495  0.000000000000000e+00
496 496  0.000000000000000e+00
497 497  0.000000000000000e+00
498 498  0.000000000000000e+00
499 499  0.000000000000000e+00
500 500  0.000000000000000e+00
501 501  0.000000000000000e+00
502 502  0.000000000000000e+00
503 503  0.000000000000000e+00
504 504  0.000000000000000e+00
505 505  0.000000000000000e+00
506 506  0.000000000000000e+00
507 507  0.000000000000000e+00
508 508  0.000000000000000e+00
509 509  0.000000000000000e+00
510 510  0.000000000000000e+00
511 511  0.000000000000000e+00
512 512  0.000000000000000e+00
513 513  0.000000000000000e+00
514 514  0.000000000000000e+00
515 515  0.000000000000000e+00
516 516  0.000000000000000e+00
517 517  0.000000000000000e+00
518 518  0.000000000000000e+00
519 519  0.000000000000000e+00
520 520  0.000000000000000e+00
521 521  0.000000000000000e+00
522 522  0.000000000000000e+00
523 523  0.000000000000000e+00
524 524  0.000000000000000e+00
525 525  0.000000000000000e+00
526 526  0.000000000000000e+00
527 527  0.000000000000000e+00
528 528  0.000000000000000e+00
529 529  0.000000000000000e+00
530 530  0.000000000000000e+00
531 531  0.000000000000000e+00
532 532  0.000000000000000e+00
533 533  0.000000000000000e+00
534 534  0.000000000000000e+00
535 535  0.000000000000000e+00
536 536  0.000000000000000e+00
537 537  0.000000000000000e+00
538 538  0.000000000000000e+00
539 539  0.000000000000000e+00
540 540  0.000000000000000e+00
541 541  0.000000000000000e+00
542 542  0.000000000000000e+00
543 543  0.000000000000000e+00
544 544  0.000000000000000e+00
545 545  0.000000000000000e+00
546 546  0.000000000000000e+00
547 547  0.000000000000000e+00
548 548  0.000000000000000e+00
549 549  0.000000000000000e+00
550 550  0.000000000000000e+00
551 551  0.000000000000000e+00
552 552  0.000000000000000e+00
553 553  0.000000000000000e+00
554 554  0.000000000000000e+00
555 555  0.000000000000000e+00
556 556  0.000000000000000e+00
557 557  0.000000000000000e+00
558 558  0.000000000000000e+00
559 559  0.000000000000000e+00
560 560  0.000000000000000e+00
561 561  0.000000000000000e+00
562 562  0.000000000000000e+00
563 563  0.000000000000000e+00
564 564  0.000000000000000e+00
565 565  0.000000000000000e+00
566 566  0.000000000000000e+00
567 567  0.000000000000000e+00
568 568  0.000000000000000e+00
569 569  0.000000000000000e+00
570 570  0.000000000000000e+00
571 571  0.000000000000000e+00
572 572  0.000000000000000e+00
573 573  0.000000000000000e+00
574 574  0.000000000000000e+00
575 575  0.000000000000000e+00
576 576  0.000000000000000e+00
577 577  0.000000000000000e+00
578 578  0.000000000000000e+00
579 579  0.000000000000000e+00
580 580  0.000000000000000e+00
581 581  0.000000000000000e+00
582 582  0.000000000000000e+00
583 583  0.000000000000000e+00
584 584  0.000000000000000e+00
585 585  0.000000000000000e+00
586 586  0.000000000000000e+00
587 587  0.000000000000000e+00
588 588  0.000000000000000e+00
589 589  0.000000000000000e+00
590 590  0.000000000000000e+00
591 591  0.000000000000000e+00
592 592  0.000000000000000e+00
593 593  0.000000000000000e+00
594 594  0.000000000000000e+00
595 595  0.000000000000000e+00
596 596  0.000000000000000e+00
597 597  0.000000000000000e+00
598 598  0.000000000000000e+00
599 599  0.000000000000000e+00
600 600  0.000000000000000e+00
601 601  0.000000000000000e+00
602 602  0.000000000000000e+00
603 603  0.000000000000000e+00
604 604  0.000000000000000e+00
605 605  0.000000000000000e+00
606 606  0.000000000000000e+00
607 607  0.000000000000000e+00
608 608  0.000000000000000e+00
609 609  0.000000000000000e+00
610 610  0.000000000000000e+00
611 611  0.000000000000000e+00
612 612  0.000000000000000e+00
613 613  0.000000000000000e+00
614 614  0.000000000000000e+00
615 615  0.000000000000000e+00
616 616  0.000000000000000e+00
617 617  0.000000000000000e+00
618 618  0.000000000000000e+00
619 619  0.000000000000000e+00
620 620  0.000000000000000e+00
621 621  0.000000000000000e+00
622 622  0.000000000000000e+00
623 623  0.000000000000000e+00
624 624  0.000000000000000e+00
625 625  0.000000000000000e+00
626 626  0.000000000000000e+00
627 627  0.000000000000000e+00
628 628  0.000000000000000e+00
629 629  0.000000000000000e+00
630 630  0.000000000000000e+00
631 631  0.000000000000000e+00
632 632  0.000000000000000e+00
633 633  0.000000000000000e+00
634 634  0.000000000000000e+00
635 635  0.000000000000000e+00
636 636  0.000000000000000e+00
637 637  0.000000000000000e+00
638 638  0.000000000000000e+00
639 639  0.000000000000000e+00
640 640  0.000000000000000e+00
641 641  0.000000000000000e+00
642 642  0.000000000000000e+00
643 643  0.000000000000000e+00
644 644  0.000000000000000e+00
645 645  0.000000000000000e+00
646 646  0.000000000000000e+00
647 647  0.000000000000000e+00
648 648  0.000000000000000e+00
649 649  0.000000000000000e+00
650 650  0.000000000000000e+00
651 651  0.000000000000000e+00
652 652  0.000000000000000e+00
653 653  0.000000000000000e+00
654 654  0.000000000000000e+00
655 655  0.000000000000000e+00
656 656  0.000000000000000e+00
657 657  0.000000000000000e+00
658 658  0.000000000000000e+00
659 659  0.000000000000000e+00
660 660  0.000000000000000e+00
661 661  0.000000000000000e+00
662 662  0.000000000000000e+00
663 663  0.000000000000000e+00
664 664  0.000000000000000e+00
665 665  0.000000000000000e+00
666 666  0.000000000000000e+00
667 667  0.000000000000000e+00
668 668  0.000000000000000e+00
669 669  0.000000000000000e+00
670 670  0.000000000000000e+00
671 671  0.000000000000000e+00
672 672  0.000000000000000e+00
673 673  0.000000000000000e+00
674 674  0.000000000000000e+00
675 675  0.000000000000000e+00
676 676  0.000000000000000e+00
677 677  0.000000000000000e+00
678 678  0.000000000000000e+00
679 679  0.000000000000000e+00
680 680  0.000000000000000e+00
681 681  0.000000000000000e+00
682 682  0.000000000000000e+00
683 683  0.000000000000000e+00
684 684  0.000000000000000e+00
685 685  0.000000000000000e+00
686 686  0.000000000000000e+00
687 687  0.000000000000000e+00
688 688  0.000000000000000e+00
689 689  0.000000000000000e+00
690 690  0.000000000000000e+00
691 691  0.000000000000000e+00
692 692  0.000000000000000e+00
693 693  0.000000000000000e+00
694 694  0.000000000000000e+00
695 695  0.000000000000000e+00
696 696  0.000000000000000e+00
697 697  0.000000000000000e+00
698 698  0.000000000000000e+00
699 699  0.000000000000000e+00
700 700  0.000000000000000e+00
701 701  0.000000000000000e+00
702 702  0.000000000000000e+00
703 703  0.000000000000000e+00
704 704  0.000000000000000e+00
705 705  0.000000000000000e+00
706 706  0.000000000000000e+00
707 707  0.000000000000000e+00
708 708  0.000000000000000e+00
709 709  0.000000000000000e+00
710 710  0.000000000000000e+00
711 711  0.000000000000000e+00
712 712  0.000000000000000e+00
713 713  0.000000000000000e+00
714 714  0.000000000000000e+00
715 715  0.000000000000000e+00
716 716  0.000000000000000e+00
717 717  0.000000000000000e+00
718 718  0.000000000000000e+00
719 719  0.000000000000000e+00
720 720  0.000000000000000e+00
721 721  0.000000000000000e+00
722 722  0.000000000000000e+00
723 723  0.000000000000000e+00
724 724  0.000000000000000e+00
725 725  0.000000000000000e+00
726 726  0.000000000000000e+00
727 727  0.000000000000000e+00
728 728  0.000000000000000e+00
729 729  0.000000000000000e+00
730 730  0.000000000000000e+00
731 731  0.000000000000000e+00
732 732  0.000000000000000e+00
733 733  0.000000000000000e+00
734 734  0.000000000000000e+00
735 735  0.000000000000000e+00
736 736  0.000000000000000e+00
737 737  0.000000000000000e+00
738 738  0.000000000000000e+00
739 739  0.000000000000000e+00
740 740  0.000000000000000e+00
741 741  0.000000000000000e+00
742 742  0.000000000000000e+00
743 743  0.000000000000000e+00
744 744  0.000000000000000e+00
745 745  0.000000000000000e+00
746 746  0.000000000000000e+00
747 747  0.000000000000000e+00
748 748  0.000000000000000e+00
749 749  0.000000000000000e+00
750 750  0.000000000000000e+00
751 751  0.000000000000000e+00
752 752  0.000000000000000e+00
753 753  0.000000000000000e+00
754 754  0.000000000000000e+00
755 755  0.000000000000000e+00
756 756  0.000000000000000e+00
757 757  0.000000000000000e+00
758 758  0.000000000000000e+00
759 759  0.000000000000000e+00
760 760  0.000000000000000e+00
761 761  0.000000000000000e+00
762 762  0.000000000000000e+00
763 763  0.000000000000000e+00
764 764  0.000000000000000e+00
765 765  0.000000000000000e+00
766 766  0.000000000000000e+00
767 767  0.000000000000000e+00
768 768  0.000000000000000e+00
769 769  0.000000000000000e+00
770 770  0.000000000000000e+00
771 771  0.000000000000000e+00
772 772  0.000000000000000e+00
773 773  0.000000000000000e+00
774 774  0.000000000000000e+00
775 775  0.000000000000000e+00
776 776  0.000000000000000e+00
777 777  0.000000000000000e+00
778 778  0.000000000000000e+00
779 779  0.000000000000000e+00
780 780  0.000000000000000e+00
781 781  0.000000000000000e+00
782 782  0.000000000000000e+00
783 783  0.000000000000000e+00
784 784  0.000000000000000e+00
785 785  0.000000000000000e+00
786 786  0.000000000000000e+00
787 787  0.000000000000000e+00
788 788  0.000000000000000e+00
789 789  0.000000000000000e+00
790 790  0.000000000000000e+00
791 791  0.000000000000000e+00
792 792  0.000000000000000e+00
793 793  0.000000000000000e+00
794 794  0.000000000000000e+00
795 795  0.000000000000000e+00
796 796  0.000000000000000e+00
797 797  0.000000000000000e+00
798 798  0.000000000000000e+00
799 799  0.000000000000000e+00
800 800  0.000000000000000e+00
801 801  0.000000000000000e+00
802 802  0.000000000000000e+00
803 803  0.000000000000000e+00
804 804  0.000000000000000e+00
805 805  0.000000000000000e+00
806 806  0.000000000000000e+00
807 807  0.000000000000000e+00
808 808  0.000000000000000e+00
809 809  0.000000000000000e+00
810 810  0.000000000000000e+00
811 811  0.000000000000000e+00
812 812  0.000000000000000e+00
813 813  0.000000000000000e+00
814 814  0.000000000000000e+00
815 815  0.000000000000000e+00
816 816  0.000000000000000e+00
817 817  0.000000000000000e+00
818 818  0.000000000000000e+00
819 819  0.000000000000000e+00
820 820  0.000000000000000e+00
821 821  0.000000000000000e+00
822 822  0.000000000000000e+00
823 823  0.000000000000000e+00
824 824  0.000000000000000e+00
825 825  0.000000000000000e+00
826 826  0.000000000000000e+00
827 827  0.000000000000000e+00
828 828  0.000000000000000e+00
829 829  0.000000000000000e+00
830 830  0.000000000000000e+00
831 831  0.000000000000000e+00
832 832  0.000000000000000e+00
833 833  0.000000000000000e+00
834 834  0.000000000000000e+00
835 835  0.000000000000000e+00
836 836  0.000000000000000e+00
837 837  0.000000000000000e+00
838 838  0.000000000000000e+00
839 839  0.000000000000000e+00
840 840  0.000000000000000e+00
841 841  0.000000000000000e+00
842 842  0.000000000000000e+00
843 843  0.000000000000000e+00
844 844  0.000000000000000e+00
845 845  0.000000000000000e+00
846 846  0.000000000000000e+00
847 847  0.000000000000000e+00
848 848  0.000000000000000e+00
849 849  0.000000000000000e+00
850 850  0.000000000000000e+00
851 851  0.000000000000000e+00
852 852  0.000000000000000e+00
853 853  0.000000000000000e+00
854 854  0.000000000000000e+00
855 855  0.000000000000000e+00
856 856  0.000000000000000e+00
857 857  0.000000000000000e+00
858 858  0.000000000000000e+00
859 859  0.000000000000000e+00
860 860  0.000000000000000e+00
861 861  0.000000000000000e+00
862 862  0.000000000000000e+00
863 863  0.000000000000000e+00
864 864  0.000000000000000e+00
865 865  0.000000000000000e+00
866 866  0.000000000000000e+00
867 867  0.000000000000000e+00
868 868  0.000000000000000e+00
869 869  0.000000000000000e+00
870 870  0.000000000000000e+00
871 871  0.000000000000000e+00
872 872  0.000000000000000e+00
873 873  0.000000000000000e+00
874 874  0.000000000000000e+00
875 875  0.000000000000000e+00
876 876  0.000000000000000e+00
877 877  0.000000000000000e+00
878 878  0.000000000000000e+00
879 879  0.000000000000000e+00
880 880  0.000000000000000e+00
881 881  0.000000000000000e+00
882 882  0.000000000000000e+00
883 883  0.000000000000000e+00
884 884  0.000000000000000e+00
885 885  0.000000000000000e+00
886 886  0.000000000000000e+00
887 887  0.000000000000000e+00
888 888  0.000000000000000e+00
889 889  0.000000000000000e+00
890 890  0.000000000000000e+00
891 891  0.000000000000000e+00
892 892  0.000000000000000e+00
893 893  0.000000000000000e+00
894 894  0.000000000000000e+00
895 895  0.000000000000000e+00
896 896  0.000000000000000e+00
897 897  0.000000000000000e+00
898 898  0.000000000000000e+00
899 899  0.000000000000000e+00
900 900  0.000000000000000e+00
901 901  0.000000000000000e+00
902 902  0.000000000000000e+00
903 903  0.000000000000000e+00
904 904  0.000000000000000e+00
905 905  0.000000000000000e+00
906 906  0.000000000000000e+00
907 907  0.000000000000000e+00
908 908  0.000000000000000e+00
909 909  0.000000000000000e+00
910 910  0.000000000000000e+00
911 911  0.000000000000000e+00
912 912  0.000000000000000e+00
913 913  0.000000000000000e+00
914 914  0.000000000000000e+00
915 915  0.000000000000000e+00
916 916  0.000000000000000e+00
917 917  0.000000000000000e+00
918 918  0.000000000000000e+00
919 919  0.000000000000000e+00
920 920  0.000000000000000e+00
921 921  0.000000000000000e+00
922 922  0.000000000000000e+00
923 923  0.000000000000000e+00
924 924  0.000000000000000e+00
925 925  0.000000000000000e+00
926 926  0.000000000000000e+00
927 927  0.000000000000000e+00
928 928  0.000000000000000e+00
929 929  0.000000000000000e+00
930 930  0.000000000000000e+00
931 931  0.000000000000000e+00
932 932  0.000000000000000e+00
933 933  0.000000000000000e+00
934 934  0.000000000000000e+00
935 935  0.000000000000000e+00
936 936  0.000000000000000e+00
937 937  0.000000000000000e+00
938 938  0.000000000000000e+00
939 939  0.000000000000000e+00
940 940  0.000000000000000e+00
941 941  0.000000000000000e+00
942 942  0.000000000000000e+00
943 943  0.000000000000000e+00
944 944  0.000000000000000e+00
945 945  0.000000000000000e+00
946 946  0.000000000000000e+00
947 947  0.000000000000000e+00
948 948  0.000000000000000e+00
949 949  0.000000000000000e+00
950 950  0.000000000000000e+00
951 951  0.000000000000000e+00
952 952  0.000000000000000e+00
953 953  0.000000000000000e+00
954 954  0.000000000000000e+00
955 955  0.000000000000000e+00
956 956  0.000000000000000e+00
957 957  0.000000000000000e+00
958 958  0.000000000000000e+00
959 959  0.000000000000000e+00
960 960  0.000000000000000e+00
961 961  0.000000000000000e+00
962 962  0.000000000000000e+00
963 963  0.000000000000000e+00
964 964  0.000000000000000e+00
965 965  0.000000000000000e+00
966 966  0.000000000000000e+00
967 967  0.000000000000000e+00
968 968  0.000000000000000e+00
969 969  0.000000000000000e+00
970 970  0.000000000000000e+00
971 971  0.000000000000000e+00
972 972  0.000000000000000e+00
973 973  0.000000000000000e+00
974 974  0.000000000000000e+00
975 975  0.000000000000000e+00
976 976  0.000000000000000e+00
977 977  0.000000000000000e+00
978 978  0.000000000000000e+00
979 979  0.000000000000000e+00
980 980  0.000000000000000e+00
981 981  0.000000000000000e+00
982 982  0.000000000000000e+00
983 983  0.000000000000000e+00
984 984  0.000000000000000e+00
985 985  0.000000000000000e+00
986 986  0.000000000000000e+00
987 987  0.000000000000000e+00
988 988  0.000000000000000e+00
989 989  0.000000000000000e+00
990 990  0.000000000000000e+00
991 991  0.000000000000000e+00
992 992  0.000000000000000e+00
993 993  0.000000000000000e+00
994 994  0.000000000000000e+00
995 995  0.000000000000000e+00
996 996  0.000000000000000e+00
997 997  0.000000000000000e+00
998 998  0.000000000000000e+00
999 999  0.000000000000000e+00
1000 1000  0.000000000000000e+00
1001 1001  0.000000000000000e+00
1002 1002  0.000000000000000e+00
1003 1003  0.000000000000000e+00
1004 1004  0.000000000000000e+00
1005 1005  0.000000000000000e+00
1006 1006  0.000000000000000e+00
1007 1007  0.000000000000000e+00
1008 1008  0.000000000000000e+00
1009 1009  0.000000000000000e+00
1010 1010  0.000000000000000e+00
1011 1011  0.000000000000000e+00
1012 1012  0.000000000000000e+00
1013 1013  0.000000000000000e+00
1014 1014  0.000000000000000e+00
1015 1015  0.000000000000000e+00
1016 1016  0.000000000000000e+00
1017 1017  0.000000000000000e+00
1018 1018  0.000000000000000e+00
1019 1019  0.000000000000000e+00
1020 1020  0.000000000000000e+00
1021 1021  0.000000000000000e+00
1022 1022  0.000000000000000e+00
1023 1023  0.000000000000000e+00
1024 1024  0.000000000000000e+00
1025 1025  0.000000000000000e+00
1026 1026  0.000000000000000e+00
1027 1027  0.000000000000000e+00
1028 1028  0.000000000000000e+00
1029 1029  0.000000000000000e+00
1030 1030  0.000000000000000e+00
1031 1031  0.000000000000000e+00
1032 1032  0.000000000000000e+00
1033 1033  0.000000000000000e+00
1034 1034  0.000000000000000e+00
1035 1035  0.000000000000000e+00
1036 1036  0.000000000000000e+00
1037 1037  0.000000000000000e+00
1038 1038  0.000000000000000e+00
1039 1039  0.000000000000000e+00
1040 1040  0.000000000000000e+00
1041 1041  0.000000000000000e+00
1042 1042  0.000000000000000e+00
1043 1043  0.000000000000000e+00
1044 1044  0.000000000000000e+00
1045 1045  0.000000000000000e+00
1046 1046  0.000000000000000e+00
1047 1047  0.000000000000000e+00
1048 1048  0.000000000000000e+00
1049 1049  0.000000000000000e+00
1050 1050  0.000000000000000e+00
1051 1051  0.000000000000000e+00
1052 1052  0.000000000000000e+00
1053 1053  0.000000000000000e+00
1054 1054  0.000000000000000e+00
1055 1055  0.000000000000000e+00
1056 1056  0.000000000000000e+00
1057 1057  0.000000000000000e+00
1058 1058  0.000000000000000e+00
1059 1059  0.000000000000000e+00
1060 1060  0.000000000000000e+00
1061 1061  0.000000000000000e+00
1062 1062  0.000000000000000e+00
1063 1063  0.000000000000000e+00
1064 1064  0.000000000000000e+00
1065 1065  0.000000000000000e+00
1066 1066  0.000000000000000e+00
1067 1067  0.000000000000000e+00
1068 1068  0.000000000000000e+00
1069 1069  0.000000000000000e+00
1070 1070  0.000000000000000e+00
1071 1071  0.000000000000000e+00
1072 1072  0.000000000000000e+00
1073 1073  0.000000000000000e+00
1074 1074  0.000000000000000e+00
1075 1075  0.000000000000000e+00
1076 1076  0.000000000000000e+00
1077 1077  0.000000000000000e+00
1078 1078  0.000000000000000e+00
1079 1079  0.000000000000000e+00
1080 1080  0.000000000000000e+00
1081 1081  0.000000000000000e+00
1082 1082  0.000000000000000e+00
1083 1083  0.000000000000000e+00
1084 1084  0.000000000000000e+00
1085 1085  0.000000000000000e+00
1086 1086  0.000000000000000e+00
1087 1087  0.000000000000000e+00
1088 1088  0.000000000000000e+00
1089 1089  0.000000000000000e+00
1090 1090  0.000000000000000e+00
1091 1091  0.000000000000000e+00
1092 1092  0.000000000000000e+00
1093 1093  0.000000000000000e+00
1094 1094  0.000000000000000e+00
1095 1095  0.000000000000000e+00
1096 1096  0.000000000000000e+00
1097 1097  0.000000000000000e+00
1098 1098  0.000000000000000e+00
1099 1099  0.000000000000000e+00
1100 1100  0.000000000000000e+00
1101 1101  0.000000000000000e+00
1102 1102  0.000000000000000e+00
1103 1103  0.000000000000000e+00
1104 1104  0.000000000000000e+00
1105 1105  0.000000000000000e+00
1106 1106  0.000000000000000e+00
1107 1107  0.000000000000000e+00
1108 1108  0.000000000000000e+00
1109 1109  0.000000000000000e+00
1110 1110  0.000000000000000e+00
1111 1111  0.000000000000000e+00
1112 1112  0.000000000000000e+00
1113 1113  0.000000000000000e+00
1114 1114  0.000000000000000e+00
1115 1115  0.000000000000000e+00
1116 1116  0.000000000000000e+00
1117 1117  0.000000000000000e+00
1118 1118  0.000000000000000e+00
1119 1119  0.000000000000000e+00
1120 1120  0.000000000000000e+00
1121 1121  0.000000000000000e+00
1122 1122  0.000000000000000e+00
1123 1123  0.000000000000000e+00
1124 1124  0.000000000000000e+00
1125 1125  0.000000000000000e+00
1126 1126  0.000000000000000e+00
1127 1127  0.000000000000000e+00
1128 1128  0.000000000000000e+00
1129 1129  0.000000000000000e+00
1130 1130  0.000000000000000e+00
1131 1131  0.000000000000000e+00
1132 1132  0.000000000000000e+00
1133 1133  0.000000000000000e+00
1134 1134  0.000000000000000e+00
1135 1135  0.000000000000000e+00
1136 1136  0.000000000000000e+00
1137 1137  0.000000000000000e+00
1138 1138  0.000000000000000e+00
1139 1139  0.000000000000000e+00
1140 1140  0.000000000000000e+00
1141 1141  0.000000000000000e+00
1142 1142  0.000000000000000e+00
1143 1143  0.000000000000000e+00
1144 1144  0.000000000000000e+00
1145 1145  0.000000000000000e+00
1146 1146  0.000000000000000e+00
1147 1147  0.000000000000000e+00
1148 1148  0.000000000000000e+00
1149 1149  0.000000000000000e+00
1150 1150  0.000000000000000e+00
1151 1151  0.000000000000000e+00
1152 1152  0.000000000000000e+00
1153 1153  0.000000000000000e+00
1154 1154  0.000000000000000e+00
1155 1155  0.000000000000000e+00
1156 1156  0.000000000000000e+00
1157 1157  0.000000000000000e+00
1158 1158  0.000000000000000e+00
1159 1159  0.000000000000000e+00
1160 1160  0.000000000000000e+00
1161 1161  0.000000000000000e+00
1162 1162  0.000000000000000e+00
1163 1163  0.000000000000000e+00
1164 1164  0.000000000000000e+00
1165 1165  0.000000000000000e+00
1166 1166  0.000000000000000e+00
1167 1167  0.000000000000000e+00
1168 1168  0.000000000000000e+00
1169 1169  0.000000000000000e+00
1170 1170  0.000000000000000e+00
1171 1171  0.000000000000000e+00
1172 1172  0.000000000000000e+00
1173 1173  0.000000000000000e+00
1174 1174  0.000000000000000e+00
1175 1175  0.000000000000000e+00
1176 1176  0.000000000000000e+00
1177 1177  0.000000000000000e+00
1178 1178  0.000000000000000e+00
1179 1179  0.000000000000000e+00
1180 1180  0.000000000000000e+00
1181 1181  0.000000000000000e+00
1182 1182  0.000000000000000e+00
1183 1183  0.000000000000000e+00
1184 1184  0.000000000000000e+00
1185 1185  0.000000000000000e+00
1186 1186  0.000000000000000e+00
1187 1187  0.000000000000000e+00
1188 1188  0.000000000000000e+00
1189 1189  0.000000000000000e+00
1190 1190  0.000000000000000e+00
1191 1191  0.000000000000000e+00
1192 1192  0.000000000000000e+00
1193 1193  0.000000000000000e+00
1194 1194  0.000000000000000e+00
1195 1195  0.000000000000000e+00
1196 1196  0.000000000000000e+00
1197 1197  0.000000000000000e+00
1198 1198  0.000000000000000e+00
1199 1199  0.000000000000000e+00
1200 1200  0.000000000000000e+00
1201 1201  0.000000000000000e+00
1202 1202  0.000000000000000e+00
1203 1203  0.000000000000000e+00
1204 1204  0.000000000000000e+00
1205 1205  0.000000000000000e+00
1206 1206  0.000000000000000e+00
1207 1207  0.000000000000000e+00
1208 1208  0.000000000000000e+00
1209 1209  0.000000000000000e+00
1210 1210  0.000000000000000e+00
1211 1211  0.000000000000000e+00
1212 1212  0.000000000000000e+00
1213 1213  0.000000000000000e+00
1214 1214  0.000000000000000e+00
1215 1215  0.000000000000000e+00
1216 1216  0.000000000000000e+00
1217 1217  0.000000000000000e+00
1218 1218  0.000000000000000e+00
1219 1219  0.000000000000000e+00
1220 1220  0.000000000000000e+00
1221 1221  0.000000000000000e+00
1222 1222  0.000000000000000e+00
1223 1223  0.000000000000000e+00
1224 1224  0.000000000000000e+00
1225 1225  0.000000000000000e+00
1226 1226  0.000000000000000e+00
1227 1227  0.000000000000000e+00
1228 1228  0.000000000000000e+00
1229 1229  0.000000000000000e+00
1230 1230  0.000000000000000e+00
1231 1231  0.000000000000000e+00
1232 1232  0.000000000000000e+00
1233 1233  0.000000000000000e+00
1234 1234  0.000000000000000e+00
1235 1235  0.000000000000000e+00
1236 1236  0.000000000000000e+00
1237 1237  0.000000000000000e+00
1238 1238  0.000000000000000e+00
1239 1239  0.000000000000000e+00
1240 1240  0.000000000000000e+00
1241 1241  0.000000000000000e+00
1242 1242  0.000000000000000e+00
1243 1243  0.000000000000000e+00
1244 1244  0.000000000000000e+00
1245 1245  0.000000000000000e+00
1246 1246  0.000000000000000e+00
1247 1247  0.000000000000000e+00
1248 1248  0.000000000000000e+00
1249 1249  0.000000000000000e+00
1250 1250  0.000000000000000e+00
1251 1251  0.000000000000000e+00
1252 1252  0.000000000000000e+00
1253 1253  0.000000000000000e+00
1254 1254  0.000000000000000e+00
1255 1255  0.000000000000000e+00
1256 1256  0.000000000000000e+00
1257 1257  0.000000000000000e+00
1258 1258  0.000000000000000e+00
1259 1259  0.000000000000000e+00
1260 1260  0.000000000000000e+00
1261 1261  0.000000000000000e+00
1262 1262  0.000000000000000e+00
1263 1263  0.000000000000000e+00
1264 1264  0.000000000000000e+00
1265 1265  0.000000000000000e+00
1266 1266  0.000000000000000e+00
1267 1267  0.000000000000000e+00
1268 1268  0.000000000000000e+00
1269 1269  0.000000000000000e+00
1270 1270  0.000000000000000e+00
1271 1271  0.000000000000000e+00
1272 1272  0.000000000000000e+00
1273 1273  0.000000000000000e+00
1274 1274  0.000000000000000e+00
1275 1275  0.000000000000000e+00
1276 1276  0.000000000000000e+00
1277 1277  0.000000000000000e+00
1278 1278  0.000000000000000e+00
